EESchema Schematic File Version 4
EELAYER 30 0
EELAYER END
$Descr A4 11693 8268
encoding utf-8
Sheet 1 1
Title "ErgoSL Single Column"
Date "2021-03-13"
Rev "1.0.1"
Comp "Sean Lanigan"
Comment1 "Licensed under CERN-OHL-S v2"
Comment2 "Part of the ErgoSL keyboard design"
Comment3 ""
Comment4 ""
$EndDescr
$Comp
L Switch:SW_Push SW1
U 1 1 6050C324
P 5750 2150
F 0 "SW1" H 5750 2450 50  0000 C CNN
F 1 "Cherry MX" H 5750 2350 50  0000 C CNN
F 2 "Button_Switch_Keyboard:SW_Cherry_MX_1.00u_PCB" H 5750 2350 50  0001 C CNN
F 3 "~" H 5750 2350 50  0001 C CNN
	1    5750 2150
	1    0    0    -1  
$EndComp
$Comp
L Device:D_ALT D1
U 1 1 6051258D
P 5750 2450
F 0 "D1" H 5750 2650 50  0000 C CNN
F 1 "1N4148" H 5750 2550 50  0000 C CNN
F 2 "Diode_SMD:D_SOD-123" H 5750 2450 50  0001 C CNN
F 3 "~" H 5750 2450 50  0001 C CNN
	1    5750 2450
	1    0    0    -1  
$EndComp
$Comp
L Connector:Conn_01x01_Female J1
U 1 1 60516BCD
P 4950 1750
F 0 "J1" H 4850 1800 50  0000 C CNN
F 1 "Conn_01x01_Female" H 5300 1800 50  0001 C CNN
F 2 "ErgoSL-C:tht_pin_1x1" H 4950 1750 50  0001 C CNN
F 3 "~" H 4950 1750 50  0001 C CNN
	1    4950 1750
	-1   0    0    1   
$EndComp
Wire Wire Line
	5150 1750 5450 1750
$Comp
L Connector:Conn_01x01_Female J12
U 1 1 605179F3
P 6550 1750
F 0 "J12" H 6400 1700 50  0000 L CNN
F 1 "Conn_01x01_Female" H 6578 1685 50  0001 L CNN
F 2 "ErgoSL-C:tht_pin_1x1" H 6550 1750 50  0001 C CNN
F 3 "~" H 6550 1750 50  0001 C CNN
	1    6550 1750
	1    0    0    -1  
$EndComp
Wire Wire Line
	5550 2150 5450 2150
Wire Wire Line
	5450 2150 5450 1750
Connection ~ 5450 1750
Wire Wire Line
	5450 1750 6350 1750
Wire Wire Line
	5950 2150 6050 2150
Wire Wire Line
	6050 2150 6050 2450
Wire Wire Line
	6050 2450 5900 2450
$Comp
L Connector:Conn_01x01_Female J10
U 1 1 60519F4D
P 5300 1400
F 0 "J10" V 5200 1350 50  0000 R CNN
F 1 "Conn_01x01_Female" V 5100 1350 50  0001 R CNN
F 2 "ErgoSL-C:tht_pin_1x1" H 5300 1400 50  0001 C CNN
F 3 "~" H 5300 1400 50  0001 C CNN
	1    5300 1400
	0    -1   -1   0   
$EndComp
Wire Wire Line
	5300 1600 5300 2350
Wire Wire Line
	5300 2450 5600 2450
$Comp
L Switch:SW_Push SW2
U 1 1 6051BC6E
P 5750 3000
F 0 "SW2" H 5750 3300 50  0000 C CNN
F 1 "Cherry MX" H 5750 3200 50  0000 C CNN
F 2 "Button_Switch_Keyboard:SW_Cherry_MX_1.00u_PCB" H 5750 3200 50  0001 C CNN
F 3 "~" H 5750 3200 50  0001 C CNN
	1    5750 3000
	1    0    0    -1  
$EndComp
$Comp
L Device:D_ALT D2
U 1 1 6051BCE4
P 5750 3300
F 0 "D2" H 5750 3500 50  0000 C CNN
F 1 "1N4148" H 5750 3400 50  0000 C CNN
F 2 "Diode_SMD:D_SOD-123" H 5750 3300 50  0001 C CNN
F 3 "~" H 5750 3300 50  0001 C CNN
	1    5750 3300
	1    0    0    -1  
$EndComp
$Comp
L Connector:Conn_01x01_Female J3
U 1 1 6051BCEE
P 4950 2600
F 0 "J3" H 4850 2650 50  0000 C CNN
F 1 "Conn_01x01_Female" H 5300 2650 50  0001 C CNN
F 2 "ErgoSL-C:tht_pin_1x1" H 4950 2600 50  0001 C CNN
F 3 "~" H 4950 2600 50  0001 C CNN
	1    4950 2600
	-1   0    0    1   
$EndComp
Wire Wire Line
	5150 2600 5450 2600
$Comp
L Connector:Conn_01x01_Female J13
U 1 1 6051BCF9
P 6550 2600
F 0 "J13" H 6400 2550 50  0000 L CNN
F 1 "Conn_01x01_Female" H 6578 2535 50  0001 L CNN
F 2 "ErgoSL-C:tht_pin_1x1" H 6550 2600 50  0001 C CNN
F 3 "~" H 6550 2600 50  0001 C CNN
	1    6550 2600
	1    0    0    -1  
$EndComp
Wire Wire Line
	5550 3000 5450 3000
Wire Wire Line
	5450 3000 5450 2600
Connection ~ 5450 2600
Wire Wire Line
	5450 2600 6350 2600
Wire Wire Line
	5950 3000 6050 3000
Wire Wire Line
	6050 3000 6050 3300
Wire Wire Line
	6050 3300 5900 3300
Wire Wire Line
	5300 2450 5300 3200
Wire Wire Line
	5300 3300 5600 3300
Connection ~ 5300 2450
$Comp
L Switch:SW_Push SW3
U 1 1 6051F6C3
P 5750 3850
F 0 "SW3" H 5750 4150 50  0000 C CNN
F 1 "Cherry MX" H 5750 4050 50  0000 C CNN
F 2 "Button_Switch_Keyboard:SW_Cherry_MX_1.00u_PCB" H 5750 4050 50  0001 C CNN
F 3 "~" H 5750 4050 50  0001 C CNN
	1    5750 3850
	1    0    0    -1  
$EndComp
$Comp
L Device:D_ALT D3
U 1 1 6051F783
P 5750 4150
F 0 "D3" H 5750 4350 50  0000 C CNN
F 1 "1N4148" H 5750 4250 50  0000 C CNN
F 2 "Diode_SMD:D_SOD-123" H 5750 4150 50  0001 C CNN
F 3 "~" H 5750 4150 50  0001 C CNN
	1    5750 4150
	1    0    0    -1  
$EndComp
$Comp
L Connector:Conn_01x01_Female J5
U 1 1 6051F78D
P 4950 3450
F 0 "J5" H 4850 3500 50  0000 C CNN
F 1 "Conn_01x01_Female" H 5300 3500 50  0001 C CNN
F 2 "ErgoSL-C:tht_pin_1x1" H 4950 3450 50  0001 C CNN
F 3 "~" H 4950 3450 50  0001 C CNN
	1    4950 3450
	-1   0    0    1   
$EndComp
Wire Wire Line
	5150 3450 5450 3450
$Comp
L Connector:Conn_01x01_Female J14
U 1 1 6051F798
P 6550 3450
F 0 "J14" H 6400 3400 50  0000 L CNN
F 1 "Conn_01x01_Female" H 6578 3385 50  0001 L CNN
F 2 "ErgoSL-C:tht_pin_1x1" H 6550 3450 50  0001 C CNN
F 3 "~" H 6550 3450 50  0001 C CNN
	1    6550 3450
	1    0    0    -1  
$EndComp
Wire Wire Line
	5550 3850 5450 3850
Wire Wire Line
	5450 3850 5450 3450
Connection ~ 5450 3450
Wire Wire Line
	5450 3450 6350 3450
Wire Wire Line
	5950 3850 6050 3850
Wire Wire Line
	6050 3850 6050 4150
Wire Wire Line
	6050 4150 5900 4150
Wire Wire Line
	5300 3300 5300 4050
Wire Wire Line
	5300 4150 5600 4150
$Comp
L Switch:SW_Push SW4
U 1 1 6051F7AB
P 5750 4700
F 0 "SW4" H 5750 5000 50  0000 C CNN
F 1 "Cherry MX" H 5750 4900 50  0000 C CNN
F 2 "Button_Switch_Keyboard:SW_Cherry_MX_1.00u_PCB" H 5750 4900 50  0001 C CNN
F 3 "~" H 5750 4900 50  0001 C CNN
	1    5750 4700
	1    0    0    -1  
$EndComp
$Comp
L Device:D_ALT D4
U 1 1 6051F7B5
P 5750 5000
F 0 "D4" H 5750 5200 50  0000 C CNN
F 1 "1N4148" H 5750 5100 50  0000 C CNN
F 2 "Diode_SMD:D_SOD-123" H 5750 5000 50  0001 C CNN
F 3 "~" H 5750 5000 50  0001 C CNN
	1    5750 5000
	1    0    0    -1  
$EndComp
$Comp
L Connector:Conn_01x01_Female J7
U 1 1 6051F7BF
P 4950 4300
F 0 "J7" H 4850 4350 50  0000 C CNN
F 1 "Conn_01x01_Female" H 5300 4350 50  0001 C CNN
F 2 "ErgoSL-C:tht_pin_1x1" H 4950 4300 50  0001 C CNN
F 3 "~" H 4950 4300 50  0001 C CNN
	1    4950 4300
	-1   0    0    1   
$EndComp
Wire Wire Line
	5150 4300 5450 4300
$Comp
L Connector:Conn_01x01_Female J15
U 1 1 6051F7CA
P 6550 4300
F 0 "J15" H 6400 4250 50  0000 L CNN
F 1 "Conn_01x01_Female" H 6578 4235 50  0001 L CNN
F 2 "ErgoSL-C:tht_pin_1x1" H 6550 4300 50  0001 C CNN
F 3 "~" H 6550 4300 50  0001 C CNN
	1    6550 4300
	1    0    0    -1  
$EndComp
Wire Wire Line
	5550 4700 5450 4700
Wire Wire Line
	5450 4700 5450 4300
Connection ~ 5450 4300
Wire Wire Line
	5450 4300 6350 4300
Wire Wire Line
	5950 4700 6050 4700
Wire Wire Line
	6050 4700 6050 5000
Wire Wire Line
	6050 5000 5900 5000
Wire Wire Line
	5300 4150 5300 4900
Wire Wire Line
	5300 5000 5600 5000
Connection ~ 5300 4150
Connection ~ 5300 3300
$Comp
L Switch:SW_Push SW5
U 1 1 60530154
P 5750 5550
F 0 "SW5" H 5750 5850 50  0000 C CNN
F 1 "Cherry MX" H 5750 5750 50  0000 C CNN
F 2 "Button_Switch_Keyboard:SW_Cherry_MX_1.00u_PCB" H 5750 5750 50  0001 C CNN
F 3 "~" H 5750 5750 50  0001 C CNN
	1    5750 5550
	1    0    0    -1  
$EndComp
$Comp
L Device:D_ALT D5
U 1 1 6053029C
P 5750 5850
F 0 "D5" H 5750 6050 50  0000 C CNN
F 1 "1N4148" H 5750 5950 50  0000 C CNN
F 2 "Diode_SMD:D_SOD-123" H 5750 5850 50  0001 C CNN
F 3 "~" H 5750 5850 50  0001 C CNN
	1    5750 5850
	1    0    0    -1  
$EndComp
$Comp
L Connector:Conn_01x01_Female J9
U 1 1 605302A6
P 4950 5150
F 0 "J9" H 4850 5200 50  0000 C CNN
F 1 "Conn_01x01_Female" H 5300 5200 50  0001 C CNN
F 2 "ErgoSL-C:tht_pin_1x1" H 4950 5150 50  0001 C CNN
F 3 "~" H 4950 5150 50  0001 C CNN
	1    4950 5150
	-1   0    0    1   
$EndComp
Wire Wire Line
	5150 5150 5450 5150
$Comp
L Connector:Conn_01x01_Female J16
U 1 1 605302B1
P 6550 5150
F 0 "J16" H 6400 5100 50  0000 L CNN
F 1 "Conn_01x01_Female" H 6578 5085 50  0001 L CNN
F 2 "ErgoSL-C:tht_pin_1x1" H 6550 5150 50  0001 C CNN
F 3 "~" H 6550 5150 50  0001 C CNN
	1    6550 5150
	1    0    0    -1  
$EndComp
Wire Wire Line
	5550 5550 5450 5550
Wire Wire Line
	5450 5550 5450 5150
Connection ~ 5450 5150
Wire Wire Line
	5450 5150 6350 5150
Wire Wire Line
	5950 5550 6050 5550
Wire Wire Line
	6050 5550 6050 5850
Wire Wire Line
	6050 5850 5900 5850
Wire Wire Line
	5300 5850 5600 5850
Connection ~ 5300 5000
$Comp
L Connector:Conn_01x01_Female J2
U 1 1 6055848E
P 4950 2350
F 0 "J2" H 4850 2400 50  0000 C CNN
F 1 "Conn_01x01_Female" H 5300 2400 50  0001 C CNN
F 2 "ErgoSL-C:tht_pin_1x1" H 4950 2350 50  0001 C CNN
F 3 "~" H 4950 2350 50  0001 C CNN
	1    4950 2350
	-1   0    0    1   
$EndComp
$Comp
L Connector:Conn_01x01_Female J4
U 1 1 605585DC
P 4950 3200
F 0 "J4" H 4850 3250 50  0000 C CNN
F 1 "Conn_01x01_Female" H 5300 3250 50  0001 C CNN
F 2 "ErgoSL-C:tht_pin_1x1" H 4950 3200 50  0001 C CNN
F 3 "~" H 4950 3200 50  0001 C CNN
	1    4950 3200
	-1   0    0    1   
$EndComp
$Comp
L Connector:Conn_01x01_Female J6
U 1 1 605585E6
P 4950 4050
F 0 "J6" H 4850 4100 50  0000 C CNN
F 1 "Conn_01x01_Female" H 5300 4100 50  0001 C CNN
F 2 "ErgoSL-C:tht_pin_1x1" H 4950 4050 50  0001 C CNN
F 3 "~" H 4950 4050 50  0001 C CNN
	1    4950 4050
	-1   0    0    1   
$EndComp
$Comp
L Connector:Conn_01x01_Female J8
U 1 1 605585F0
P 4950 4900
F 0 "J8" H 4850 4950 50  0000 C CNN
F 1 "Conn_01x01_Female" H 5300 4950 50  0001 C CNN
F 2 "ErgoSL-C:tht_pin_1x1" H 4950 4900 50  0001 C CNN
F 3 "~" H 4950 4900 50  0001 C CNN
	1    4950 4900
	-1   0    0    1   
$EndComp
$Comp
L Connector:Conn_01x01_Female J11
U 1 1 605585FA
P 5300 6200
F 0 "J11" H 5200 6250 50  0000 C CNN
F 1 "Conn_01x01_Female" H 5650 6250 50  0001 C CNN
F 2 "ErgoSL-C:tht_pin_1x1" H 5300 6200 50  0001 C CNN
F 3 "~" H 5300 6200 50  0001 C CNN
	1    5300 6200
	0    1    1    0   
$EndComp
Wire Wire Line
	5150 2350 5300 2350
Wire Wire Line
	5150 3200 5300 3200
Wire Wire Line
	5150 4050 5300 4050
Wire Wire Line
	5150 4900 5300 4900
Connection ~ 5300 4900
Wire Wire Line
	5300 4900 5300 5000
Connection ~ 5300 2350
Wire Wire Line
	5300 2350 5300 2450
Connection ~ 5300 3200
Wire Wire Line
	5300 3200 5300 3300
Connection ~ 5300 4050
Wire Wire Line
	5300 4050 5300 4150
Wire Wire Line
	5300 5000 5300 5850
Wire Wire Line
	5300 5850 5300 6000
Connection ~ 5300 5850
Wire Notes Line
	4900 5100 6600 5100
Wire Notes Line
	6600 5100 6600 6250
Wire Notes Line
	6600 6250 4900 6250
Wire Notes Line
	4900 6250 4900 5100
Text Notes 5600 6250 0    50   ~ 0
Snap-off section on PCB
$EndSCHEMATC
