EESchema Schematic File Version 4
EELAYER 30 0
EELAYER END
$Descr A4 11693 8268
encoding utf-8
Sheet 1 1
Title "ErgoSL Thumb Cluster"
Date "2021-03-13"
Rev "1.0.1"
Comp "Sean Lanigan"
Comment1 "Licensed under CERN-OHL-S v2"
Comment2 "Part of the ErgoSL keyboard design"
Comment3 ""
Comment4 ""
$EndDescr
$Comp
L Switch:SW_Push SW1:2
U 1 1 6051F6C3
P 5200 3050
F 0 "SW1:2" H 5200 3350 50  0000 C CNN
F 1 "Cherry MX" H 5200 3250 50  0000 C CNN
F 2 "Button_Switch_Keyboard:SW_Cherry_MX_1.00u_PCB" H 5200 3250 50  0001 C CNN
F 3 "~" H 5200 3250 50  0001 C CNN
	1    5200 3050
	1    0    0    -1  
$EndComp
$Comp
L Device:D_ALT D1
U 1 1 6051F783
P 5650 3050
F 0 "D1" H 5650 2850 50  0000 C CNN
F 1 "1N4148" H 5650 2950 50  0000 C CNN
F 2 "Diode_SMD:D_SOD-123" H 5650 3050 50  0001 C CNN
F 3 "~" H 5650 3050 50  0001 C CNN
	1    5650 3050
	-1   0    0    1   
$EndComp
Wire Wire Line
	5400 3050 5500 3050
Text GLabel 4650 2500 0    50   Input ~ 0
THM_COL_1
Text GLabel 4650 3050 0    50   Input ~ 0
THM_ROW_2
Wire Wire Line
	4650 3050 5000 3050
Wire Wire Line
	5900 2500 5900 3050
Wire Wire Line
	5900 3050 5800 3050
Wire Wire Line
	4650 2500 5900 2500
$Comp
L Switch:SW_Push SW1:3
U 1 1 6052C1A3
P 5200 3650
F 0 "SW1:3" H 5200 3950 50  0000 C CNN
F 1 "Cherry MX" H 5200 3850 50  0000 C CNN
F 2 "Button_Switch_Keyboard:SW_Cherry_MX_1.00u_PCB" H 5200 3850 50  0001 C CNN
F 3 "~" H 5200 3850 50  0001 C CNN
	1    5200 3650
	1    0    0    -1  
$EndComp
$Comp
L Device:D_ALT D2
U 1 1 6052C25D
P 5650 3650
F 0 "D2" H 5650 3450 50  0000 C CNN
F 1 "1N4148" H 5650 3550 50  0000 C CNN
F 2 "Diode_SMD:D_SOD-123" H 5650 3650 50  0001 C CNN
F 3 "~" H 5650 3650 50  0001 C CNN
	1    5650 3650
	-1   0    0    1   
$EndComp
Wire Wire Line
	5400 3650 5500 3650
Text GLabel 4650 3650 0    50   Input ~ 0
THM_ROW_3
Wire Wire Line
	4650 3650 5000 3650
Wire Wire Line
	5900 3650 5800 3650
$Comp
L Switch:SW_Push SW1:4
U 1 1 605346DF
P 5200 4250
F 0 "SW1:4" H 5200 4550 50  0000 C CNN
F 1 "Cherry MX" H 5200 4450 50  0000 C CNN
F 2 "Button_Switch_Keyboard:SW_Cherry_MX_1.00u_PCB" H 5200 4450 50  0001 C CNN
F 3 "~" H 5200 4450 50  0001 C CNN
	1    5200 4250
	1    0    0    -1  
$EndComp
$Comp
L Device:D_ALT D3
U 1 1 605347C3
P 5650 4250
F 0 "D3" H 5650 4050 50  0000 C CNN
F 1 "1N4148" H 5650 4150 50  0000 C CNN
F 2 "Diode_SMD:D_SOD-123" H 5650 4250 50  0001 C CNN
F 3 "~" H 5650 4250 50  0001 C CNN
	1    5650 4250
	-1   0    0    1   
$EndComp
Wire Wire Line
	5400 4250 5500 4250
Text GLabel 4650 4250 0    50   Input ~ 0
THM_ROW_4
Wire Wire Line
	4650 4250 4900 4250
Wire Wire Line
	5900 4250 5800 4250
$Comp
L Switch:SW_Push SW1:5
U 1 1 605397DB
P 5200 4850
F 0 "SW1:5" H 5200 5150 50  0000 C CNN
F 1 "Cherry MX" H 5200 5050 50  0000 C CNN
F 2 "Button_Switch_Keyboard:SW_Cherry_MX_1.00u_PCB" H 5200 5050 50  0001 C CNN
F 3 "~" H 5200 5050 50  0001 C CNN
	1    5200 4850
	1    0    0    -1  
$EndComp
$Comp
L Device:D_ALT D4
U 1 1 605398E9
P 5650 4850
F 0 "D4" H 5650 4650 50  0000 C CNN
F 1 "1N4148" H 5650 4750 50  0000 C CNN
F 2 "Diode_SMD:D_SOD-123" H 5650 4850 50  0001 C CNN
F 3 "~" H 5650 4850 50  0001 C CNN
	1    5650 4850
	-1   0    0    1   
$EndComp
Wire Wire Line
	5400 4850 5500 4850
Text GLabel 4650 4850 0    50   Input ~ 0
THM_ROW_5
Wire Wire Line
	4650 4850 4900 4850
Wire Wire Line
	5900 4850 5800 4850
Wire Wire Line
	5900 3050 5900 3650
Connection ~ 5900 3050
Connection ~ 5900 3650
Wire Wire Line
	5900 3650 5900 4250
Wire Wire Line
	5900 4850 5900 4250
Connection ~ 5900 4250
$Comp
L Switch:SW_Push SW2:4
U 1 1 60558CC9
P 6800 4250
F 0 "SW2:4" H 6800 4550 50  0000 C CNN
F 1 "Cherry MX" H 6800 4450 50  0000 C CNN
F 2 "Button_Switch_Keyboard:SW_Cherry_MX_1.00u_PCB" H 6800 4450 50  0001 C CNN
F 3 "~" H 6800 4450 50  0001 C CNN
	1    6800 4250
	1    0    0    -1  
$EndComp
$Comp
L Device:D_ALT D5
U 1 1 60558D8D
P 7250 4250
F 0 "D5" H 7250 4050 50  0000 C CNN
F 1 "1N4148" H 7250 4150 50  0000 C CNN
F 2 "Diode_SMD:D_SOD-123" H 7250 4250 50  0001 C CNN
F 3 "~" H 7250 4250 50  0001 C CNN
	1    7250 4250
	-1   0    0    1   
$EndComp
Wire Wire Line
	7000 4250 7100 4250
Wire Wire Line
	6250 4250 6600 4250
Wire Wire Line
	7500 4250 7400 4250
$Comp
L Switch:SW_Push SW2:5
U 1 1 60558D9A
P 6800 4850
F 0 "SW2:5" H 6800 5150 50  0000 C CNN
F 1 "Cherry MX" H 6800 5050 50  0000 C CNN
F 2 "Button_Switch_Keyboard:SW_Cherry_MX_1.00u_PCB" H 6800 5050 50  0001 C CNN
F 3 "~" H 6800 5050 50  0001 C CNN
	1    6800 4850
	1    0    0    -1  
$EndComp
$Comp
L Device:D_ALT D6
U 1 1 60558DA4
P 7250 4850
F 0 "D6" H 7250 4650 50  0000 C CNN
F 1 "1N4148" H 7250 4750 50  0000 C CNN
F 2 "Diode_SMD:D_SOD-123" H 7250 4850 50  0001 C CNN
F 3 "~" H 7250 4850 50  0001 C CNN
	1    7250 4850
	-1   0    0    1   
$EndComp
Wire Wire Line
	7000 4850 7100 4850
Wire Wire Line
	6250 4850 6600 4850
Wire Wire Line
	7500 4850 7400 4850
Wire Wire Line
	4900 4250 4900 4400
Wire Wire Line
	4900 4400 6250 4400
Wire Wire Line
	6250 4400 6250 4250
Connection ~ 4900 4250
Wire Wire Line
	4900 4250 5000 4250
Wire Wire Line
	4900 4850 4900 5000
Wire Wire Line
	4900 5000 6250 5000
Wire Wire Line
	6250 5000 6250 4850
Connection ~ 4900 4850
Wire Wire Line
	4900 4850 5000 4850
Text GLabel 6650 2500 0    50   Input ~ 0
THM_COL_2
Wire Wire Line
	6650 2500 7500 2500
Wire Wire Line
	7500 2500 7500 4250
Wire Wire Line
	7500 4850 7500 4250
Connection ~ 7500 4250
$Comp
L Connector:Conn_01x06_Female J1
U 1 1 604952BB
P 8800 3600
F 0 "J1" H 8828 3530 50  0000 L CNN
F 1 "Conn_01x06_Female" H 8828 3485 50  0001 L CNN
F 2 "ErgoSL-C:tht_pin_1x6" H 8800 3600 50  0001 C CNN
F 3 "~" H 8800 3600 50  0001 C CNN
	1    8800 3600
	1    0    0    -1  
$EndComp
Text GLabel 8450 3400 0    50   Input ~ 0
THM_COL_1
Text GLabel 8450 3500 0    50   Input ~ 0
THM_COL_2
Text GLabel 8450 3600 0    50   Input ~ 0
THM_ROW_2
Text GLabel 8450 3700 0    50   Input ~ 0
THM_ROW_3
Text GLabel 8450 3800 0    50   Input ~ 0
THM_ROW_4
Text GLabel 8450 3900 0    50   Input ~ 0
THM_ROW_5
Wire Wire Line
	8450 3400 8600 3400
Wire Wire Line
	8450 3500 8600 3500
Wire Wire Line
	8450 3600 8600 3600
Wire Wire Line
	8450 3700 8600 3700
Wire Wire Line
	8450 3800 8600 3800
Wire Wire Line
	8450 3900 8600 3900
$EndSCHEMATC
